…
---

`symptoms_cases_df`

\vspace{0.2cm}

\tiny
```
# A tibble: 3,156 x 3
      id symptom             id_person
   <dbl> <chr>                   <int>
 1     1 Husten                      1
 2     2 Geruchssinnsverlust         1
 3     3 Niesen                      1
 4     4 Geruchssinnsverlust         2
 5     5 Fieber                      3
 6     6 Geruchssinnsverlust         3
 7     7 Schmerzen                   3
 8     8 Kopfschmerzen               3
 9     9 Atemnot                     3
10    10 Husten                      5
# … with 3,146 more rows
```
\normalsize

---

`contacts_df`

\vspace{0.2cm}

\tiny
```
# A tibble: 11,558 x 4
      id id_index id_contact is_infection
   <dbl>    <int>      <dbl> <lgl>       
 1     1      834          2 TRUE        
 2     2      928          3 TRUE        
 3     3      940          4 TRUE        
 4     4       75          5 TRUE        
 5     5     1263          6 TRUE        
 6     6     1165          7 TRUE        
 7     7      990          8 TRUE        
 8     8     1185          9 TRUE        
 9     9     1263         10 TRUE        
10    10      331         11 TRUE        
# … with 11,548 more rows
```
\normalsize

---

`events_df`

\vspace{0.2cm}

\tiny
```
# A tibble: 69 x 5
      id date       address      longitude latitude
   <int> <date>     <chr>            <dbl>    <dbl>
 1     1 2020-03-29 Braunschweig      10.5     52.2
 2     2 2020-04-02 Braunschweig      10.6     52.3
 3     3 2020-03-24 Braunschweig      10.6     52.3
 4     4 2020-08-02 Braunschweig      10.6     52.3
 5     5 2020-06-11 Braunschweig      10.5     52.3
 6     6 2020-03-28 Braunschweig      10.6     52.3
 7     7 2020-06-10 Braunschweig      10.6     52.3
 8     8 2020-04-01 Braunschweig      10.5     52.3
 9     9 2020-09-04 Braunschweig      10.6     52.3
10    10 2020-04-03 Braunschweig      10.6     52.3
# … with 59 more rows
```
\normalsize

---

`event_participants_df`

\vspace{0.2cm}

\tiny
```
# A tibble: 1,019 x 3
      id id_event id_participant
   <dbl>    <int>          <dbl>
 1     1        1           1365
 2     2        1          11879
 3     3        1          11880
 4     4        1          11881
 5     5        1          11882
 6     6        1          11883
 7     7        1          11884
 8     8        1          11885
 9     9        1          11886
10    10        2           1022
# … with 1,009 more rows
```
…
